@startuml
MainActivity -> Filter: GetFilterValues
Filter --> MainActivity

MainActivity -> RestTask: GetJSONLDGraphs

RestTask -> DataParser: ParseData
DataParser --> RestTask

RestTask --> MainActivity


MainActivity -> OfferListView: ShowOffersList
hnote over OfferListView : User clicks on "Show Details"

OfferListView -> DetailsActivity: ChangeToDetailsActivity

hnote over DetailsActivity : User clicks on "Show offer made by this instance"

DetailsActivity -> FetchOfferRestTask: FetchJSONLD
FetchOfferRestTask -> DataParser: ParseData
DataParser --> FetchOfferRestTask
FetchOfferRestTask --> DetailsActivity

DetailsActivity -> SecondDetailsActivity: ChangeToDetailsActivity

hnote over SecondDetailsActivity : User clicks on "Buy this offer"
SecondDetailsActivity -> WebViewButton: StartWebView

@enduml