@startuml

abstract class Activity
interface OnClickListener
Activity <|-- MainActivity
Activity <|-- DetailsActivity

OnClickListener <|-- MainActivity
OnClickListener <|-- StartWebViewOnClickListener
OnClickListener <|-- DAOAdapter


MainActivity *-- RestTask
MainActivity *-- Filter
MainActivity *-- DAOAdapter
MainActivity *-- DataParser
DAOAdapter *-- StartWebViewOnClickListener

RestTask *-- DataParser
FetchOfferRestTask *-- DataParser

DetailsActivity *-- StartWebViewOnClickListener
DetailsActivity *-- DAO
DetailsActivity *-- FetchOfferRestTask
DetailsActivity *-- DataParser

DAOAdapter *-- DAO
DataParser *-- DAO

DAO *-- Types



class MainActivity {

onCreate()
}

class DetailsActivity{
TextView nameTextView
ImageView imageView
TextView captionTextView
TextView descriptionTextView
Button potentialActionButton
Button detailButton
TextView detailsTextView
}

class DAO{
String name
String description
String caption
Image image
String price
List potentialActionList
Map restDataMap
}

class DAOAdapter{
ActivityChangeListener listener
}

class DataParser{
loadDataIntoModel()
parseAllData()
}

class Filter{
Date fromDate
Date toDate
double fromPrice
double toPrice
private double longitude
private double latitude
getEndpoints()
}

class RestTask{
doInBackground()
onPostResults()
}


class FetchOfferRestTask{
doInBackground()
onPostResults()
}

class StartWebViewOnClickListener{
Intent startWebViewIntent
onButtonClicked()
}


enum Types {
OFFER
EVENT
LODGINGBUSINESS
TOURISTATTRACTION
RESTAURANT
}

@enduml